b'{"code":1000,"items":[
:{"id":9709643,"name":"\xe4\xbb\xbb\xe5\x86\xac\xe4\xba\x91","phone":"13241358818","owner_id":null,"owner_group_id":null},"agent":{"id":66543,"name":"\xe6\x80\x9d\xe6\x80\x9d","phone":""},"from_agent":{"id":null,"name":null,"phone":null},"queue":{"type":null,"desc":null,"quit_queue_why":null,"queuing_duration":null},"call_log":{"category":"normal","seat_type":"fixed_voip_online","agent_work_phone":"94677024101003","call_type":"\xe5\x91\xbc\xe5\x87\xba","workflow":"out_direct","result":"\xe5\xae\xa2\xe6\x88\xb7\xe6\x8e\xa5\xe5\x90\xac","duration":151,"delay":28,"satisfic":"\xe6\x97\xa0\xe9\x9c\x80\xe8\xaf\x84\xe4\xbb\xb7","survey":"\xe6\x97\xa0\xe9\x9c\x80\xe8\xaf\x84\xe4\xbb\xb7","start_time":"2017-12-13T17:00:45.000+08:00","hangup_people":"\xe5\xae\xa2\xe6\x88\xb7","hotline_phone":null,"from_number":"94677024101003","to_number":"13241358818","customer_number":"13241358818","conversation_log_id":36075711,"call_id":"f08d6d21-03a3-4f98-9bef-57ec9ee6ed87","phone_address":"\xe5\x8c\x97\xe4\xba\xac","access_number":"01060845230","is_leave_message":false,"consult_agent_names_string":"","sound_url":"http://ccrecords.alioss.udesk.cn/linapp/cc_recordings/f08d6d21-03a3-4f98-9bef-57ec9ee6ed87_2167f3e4-4498-4df9-b098-27e4ce55ec22.mp3?OSSAccessKeyId=bPexlr6MCcadDhfu&Expires=1544691824&Signature=YnSeoz2cE7LoAGdMwm3A1VbOp7E%3D","asr_result":false,"outline_phone_number":null,"nodes":null,"multi_ring_count":0,"relevant_agent_ids":[66543],"multi_ring_traces":[]}},
:{"id":61251529,"name":"\xe7\x8e\x8b\xe9\xa2\x96\xe6\xac\xa3","phone":"13633361530","owner_id":null,"owner_group_id":null},"agent":{"id":66543,"name":"\xe6\x80\x9d\xe6\x80\x9d","phone":""},"from_agent":{"id":null,"name":null,"phone":null},"queue":{"type":null,"desc":null,"quit_queue_why":null,"queuing_duration":null},"call_log":{"category":"normal","seat_type":"fixed_voip_online","agent_work_phone":"94677024101003","call_type":"\xe5\x91\xbc\xe5\x87\xba","workflow":"out_direct","result":"\xe5\xae\xa2\xe6\x88\xb7\xe6\x9c\xaa\xe6\x8e\xa5","duration":0,"delay":69,"satisfic":"\xe6\x97\xa0\xe9\x9c\x80\xe8\xaf\x84\xe4\xbb\xb7","survey":"\xe6\x97\xa0\xe9\x9c\x80\xe8\xaf\x84\xe4\xbb\xb7","start_time":"2017-12-13T16:57:48.000+08:00","hangup_people":"","hotline_phone":null,"from_number":"94677024101003","to_number":"13633361530","customer_number":"13633361530","conversation_log_id":36074572,"call_id":"351a5bab-27bc-4c86-a472-479088d3f714","phone_address":"\xe6\xb2\xb3\xe5\x8c\x97 \xe5\x94\x90\xe5\xb1\xb1\xe5\xb8\x82","access_number":"01060845230","is_leave_message":false,"consult_agent_names_string":"","sound_url":null,"asr_result":false,"outline_phone_number":null,"nodes":null,"multi_ring_count":0,"relevant_agent_ids":[66543],"multi_ring_traces":[]}},
:{"id":107817396,"name":"0790***0683","phone":"07907120683","owner_id":null,"owner_group_id":null},"agent":{"id":23620,"name":"\xe8\xb4\xbe\xe9\x9b\x85\xe6\xa2\xa6","phone":""},"from_agent":{"id":null,"name":null,"phone":null},"queue":{"type":null,"desc":null,"quit_queue_why":null,"queuing_duration":null},"call_log":{"category":"normal","seat_type":"fixed_voip_online","agent_work_phone":"69997058255364","call_type":"\xe5\x91\xbc\xe5\x87\xba","workflow":"out_callback","result":"\xe5\xae\xa2\xe6\x88\xb7\xe6\x8e\xa5\xe5\x90\xac","duration":558,"delay":10,"satisfic":"\xe6\x97\xa0\xe9\x9c\x80\xe8\xaf\x84\xe4\xbb\xb7","survey":"\xe6\x97\xa0\xe9\x9c\x80\xe8\xaf\x84\xe4\xbb\xb7","start_time":"2017-12-13T16:52:01.000+08:00","hangup_people":"\xe5\xae\xa2\xe6\x9c\x8d","hotline_phone":null,"from_number":"69997058255364","to_number":"07907120683","customer_number":"07907120683","conversation_log_id":36072248,"call_id":"c0147375-3311-438c-499e-49f4df42203c","phone_address":"\xe6\xb1\x9f\xe8\xa5\xbf \xe6\x96\xb0\xe4\xbd\x99\xe5\xb8\x82","access_number":"01053710486","is_leave_message":false,"consult_agent_names_string":"","sound_url":"http://ccrecords.alioss.udesk.cn/linapp/cc_recordings/c0147375-3311-438c-499e-49f4df42203c_05cceeb5-07ae-45c1-83e7-19b1da3341f4.mp3?OSSAccessKeyId=bPexlr6MCcadDhfu&Expires=1544691691&Signature=8GCBjwIS7jJH0jfKMStow9WLVuA%3D","asr_result":false,"outline_phone_number":null,"nodes":null,"multi_ring_count":0,"relevant_agent_ids":[23620],"multi_ring_traces":[]}},
:{"id":6638225,"name":"zauMVb2UZ3yuoepm","phone":"13702881373","owner_id":null,"owner_group_id":null},"agent":{"id":66543,"name":"\xe6\x80\x9d\xe6\x80\x9d","phone":""},"from_agent":{"id":null,"name":null,"phone":null},"queue":{"type":null,"desc":null,"quit_queue_why":null,"queuing_duration":null},"call_log":{"category":"normal","seat_type":"fixed_voip_online","agent_work_phone":"94677024101003","call_type":"\xe5\x91\xbc\xe5\x87\xba","workflow":"out_direct","result":"\xe5\xae\xa2\xe6\x88\xb7\xe6\x8e\xa5\xe5\x90\xac","duration":107,"delay":18,"satisfic":"\xe6\x97\xa0\xe9\x9c\x80\xe8\xaf\x84\xe4\xbb\xb7","survey":"\xe6\x97\xa0\xe9\x9c\x80\xe8\xaf\x84\xe4\xbb\xb7","start_time":"2017-12-13T16:50:47.000+08:00","hangup_people":"\xe5\xae\xa2\xe6\x9c\x8d","hotline_phone":null,"from_number":"94677024101003","to_number":"13702881373","customer_number":"13702881373","conversation_log_id":36071725,"call_id":"4463204b-6a74-4271-962a-320a665774fa","phone_address":"\xe5\xb9\xbf\xe4\xb8\x9c \xe6\xb9\x9b\xe6\xb1\x9f\xe5\xb8\x82","access_number":"01060845230","is_leave_message":false,"consult_agent_names_string":"","sound_url":"http://ccrecords.alioss.udesk.cn/linapp/cc_recordings/4463204b-6a74-4271-962a-320a665774fa_a8eb7275-a79e-4c49-87d2-81e3022ba0c8.mp3?OSSAccessKeyId=bPexlr6MCcadDhfu&Expires=1544691173&Signature=BB147QvAdCadOwagzc6n%2FkDIA98%3D","asr_result":false,"outline_phone_number":null,"nodes":null,"multi_ring_count":0,"relevant_agent_ids":[66543],"multi_ring_traces":[]}},
:{"id":6638225,"name":"zauMVb2UZ3yuoepm","phone":"13702881373","owner_id":null,"owner_group_id":null},"agent":{"id":66543,"name":"\xe6\x80\x9d\xe6\x80\x9d","phone":""},"from_agent":{"id":null,"name":null,"phone":null},"queue":{"type":null,"desc":null,"quit_queue_why":null,"queuing_duration":null},"call_log":{"category":"normal","seat_type":"fixed_voip_online","agent_work_phone":"94677024101003","call_type":"\xe5\x91\xbc\xe5\x87\xba","workflow":"out_callback","result":"\xe5\xae\xa2\xe6\x9c\x8d\xe6\x9c\xaa\xe6\x8e\xa5","duration":0,"delay":null,"satisfic":"\xe6\x97\xa0\xe9\x9c\x80\xe8\xaf\x84\xe4\xbb\xb7","survey":"\xe6\x97\xa0\xe9\x9c\x80\xe8\xaf\x84\xe4\xbb\xb7","start_time":"2017-12-13T16:50:15.000+08:00","hangup_people":"","hotline_phone":null,"from_number":"94677024101003","to_number":"13702881373","customer_number":"13702881373","conversation_log_id":36071476,"call_id":"8f7428d4-1e8d-4412-689c-9472424519c8","phone_address":"\xe5\xb9\xbf\xe4\xb8\x9c \xe6\xb9\x9b\xe6\xb1\x9f\xe5\xb8\x82","access_number":"01053710486","is_leave_message":false,"consult_agent_names_string":"","sound_url":null,"asr_result":false,"outline_phone_number":null,"nodes":null,"multi_ring_count":0,"relevant_agent_ids":[66543],"multi_ring_traces":[]}},
:{"id":107667511,"name":"\xe8\x91\xa3\xe5\x9b\xbd\xe6\xa0\x8b","phone":"17607059215","owner_id":null,"owner_group_id":null},"agent":{"id":null,"name":null,"phone":null},"from_agent":{"id":null,"name":null,"phone":null},"queue":{"type":null,"desc":null,"quit_queue_why":null,"queuing_duration":null},"call_log":{"category":"normal","seat_type":null,"agent_work_phone":null,"call_type":"\xe5\x91\xbc\xe5\x85\xa5","workflow":"in","result":"\xe6\x9c\xaa\xe9\x80\x89\xe6\x8b\xa9\xe9\x98\x9f\xe5\x88\x97","duration":0,"delay":null,"satisfic":"\xe6\x97\xa0\xe9\x9c\x80\xe8\xaf\x84\xe4\xbb\xb7","survey":"\xe6\x97\xa0\xe9\x9c\x80\xe8\xaf\x84\xe4\xbb\xb7","start_time":"2017-12-13T16:49:40.000+08:00","hangup_people":"","hotline_phone":"01053710486","from_number":"17607059215","to_number":"01053710486","customer_number":"17607059215","conversation_log_id":36071222,"call_id":"7572d7d1-ff35-4616-8de7-e45767540511","phone_address":"\xe6\xb1\x9f\xe8\xa5\xbf \xe5\xae\x9c\xe6\x98\xa5\xe5\xb8\x82","access_number":"01053710486","is_leave_message":false,"consult_agent_names_string":"","sound_url":null,"asr_result":false,"outline_phone_number":null,"nodes":["\xe6\x97\xb6\xe9\x97\xb4\xe5\x88\xa4\xe6\x96\xad","\xe6\xac\xa2\xe8\xbf\x8e\xe8\xaf\xad"],"multi_ring_count":0,"relevant_agent_ids":[],"multi_ring_traces":[]}},
:{"id":9039399,"name":"ZBjEZn3i6j2uasdo","phone":"15281136673","owner_id":null,"owner_group_id":null},"agent":{"id":66543,"name":"\xe6\x80\x9d\xe6\x80\x9d","phone":""},"from_agent":{"id":null,"name":null,"phone":null},"queue":{"type":null,"desc":null,"quit_queue_why":null,"queuing_duration":null},"call_log":{"category":"normal","seat_type":"fixed_voip_online","agent_work_phone":"94677024101003","call_type":"\xe5\x91\xbc\xe5\x87\xba","workflow":"out_direct","result":"\xe5\xae\xa2\xe6\x88\xb7\xe6\x9c\xaa\xe6\x8e\xa5","duration":0,"delay":64,"satisfic":"\xe6\x97\xa0\xe9\x9c\x80\xe8\xaf\x84\xe4\xbb\xb7","survey":"\xe6\x97\xa0\xe9\x9c\x80\xe8\xaf\x84\xe4\xbb\xb7","start_time":"2017-12-13T16:48:42.000+08:00","hangup_people":"","hotline_phone":null,"from_number":"94677024101003","to_number":"15281136673","customer_number":"15281136673","conversation_log_id":36070810,"call_id":"f9fb1d2a-c1fe-4450-b04c-fba8d639f307","phone_address":"\xe5\x9b\x9b\xe5\xb7\x9d \xe7\xbb\xb5\xe9\x98\xb3\xe5\xb8\x82","access_number":"01060845230","is_leave_message":false,"consult_agent_names_string":"","sound_url":null,"asr_result":false,"outline_phone_number":null,"nodes":null,"multi_ring_count":0,"relevant_agent_ids":[66543],"multi_ring_traces":[]}},
:{"id":58247582,"name":"13811084761","phone":"13811084761","owner_id":null,"owner_group_id":null},"agent":{"id":66543,"name":"\xe6\x80\x9d\xe6\x80\x9d","phone":""},"from_agent":{"id":null,"name":null,"phone":null},"queue":{"type":null,"desc":null,"quit_queue_why":null,"queuing_duration":null},"call_log":{"category":"normal","seat_type":"fixed_voip_online","agent_work_phone":"94677024101003","call_type":"\xe5\x91\xbc\xe5\x87\xba","workflow":"out_direct","result":"\xe5\xae\xa2\xe6\x88\xb7\xe6\x8e\xa5\xe5\x90\xac","duration":62,"delay":16,"satisfic":"\xe6\x97\xa0\xe9\x9c\x80\xe8\xaf\x84\xe4\xbb\xb7","survey":"\xe6\x97\xa0\xe9\x9c\x80\xe8\xaf\x84\xe4\xbb\xb7","start_time":"2017-12-13T16:39:35.000+08:00","hangup_people":"\xe5\xae\xa2\xe6\x9c\x8d","hotline_phone":null,"from_number":"94677024101003","to_number":"13811084761","customer_number":"13811084761","conversation_log_id":36067146,"call_id":"c133144e-3c69-4da7-8404-f75f02b60b53","phone_address":"\xe5\x8c\x97\xe4\xba\xac","access_number":"01060845230","is_leave_message":false,"consult_agent_names_string":"","sound_url":"http://ccrecords.alioss.udesk.cn/linapp/cc_recordings/c133144e-3c69-4da7-8404-f75f02b60b53_8bc1753f-90e2-4a08-ad9d-7142ac55366d.mp3?OSSAccessKeyId=bPexlr6MCcadDhfu&Expires=1544690453&Signature=vAE72NX1kEvEKeG%2F4P4oGfnFMec%3D","asr_result":false,"outline_phone_number":null,"nodes":null,"multi_ring_count":0,"relevant_agent_ids":[66543],"multi_ring_traces":[]}},
:{"id":79307376,"name":"159****0271","phone":"15991650271","owner_id":null,"owner_group_id":null},"agent":{"id":66543,"name":"\xe6\x80\x9d\xe6\x80\x9d","phone":""},"from_agent":{"id":null,"name":null,"phone":null},"queue":{"type":null,"desc":null,"quit_queue_why":null,"queuing_duration":null},"call_log":{"category":"normal","seat_type":"fixed_voip_online","agent_work_phone":"94677024101003","call_type":"\xe5\x91\xbc\xe5\x87\xba","workflow":"out_direct","result":"\xe5\xae\xa2\xe6\x88\xb7\xe6\x9c\xaa\xe6\x8e\xa5","duration":0,"delay":69,"satisfic":"\xe6\x97\xa0\xe9\x9c\x80\xe8\xaf\x84\xe4\xbb\xb7","survey":"\xe6\x97\xa0\xe9\x9c\x80\xe8\xaf\x84\xe4\xbb\xb7","start_time":"2017-12-13T16:37:34.000+08:00","hangup_people":"","hotline_phone":null,"from_number":"94677024101003","to_number":"15991650271","customer_number":"15991650271","conversation_log_id":36066307,"call_id":"f1aa0435-a75a-45fa-82e5-de8231372df5","phone_address":"\xe9\x99\x95\xe8\xa5\xbf \xe8\xa5\xbf\xe5\xae\x89\xe5\xb8\x82","access_number":"01060845230","is_leave_message":false,"consult_agent_names_string":"","sound_url":null,"asr_result":false,"outline_phone_number":null,"nodes":null,"multi_ring_count":0,"relevant_agent_ids":[66543],"multi_ring_traces":[]}},
:{"id":25103343,"name":"ZjQJVvRbM36vpitt","phone":"13884194383","owner_id":null,"owner_group_id":null},"agent":{"id":66543,"name":"\xe6\x80\x9d\xe6\x80\x9d","phone":""},"from_agent":{"id":null,"name":null,"phone":null},"queue":{"type":null,"desc":null,"quit_queue_why":null,"queuing_duration":null},"call_log":{"category":"normal","seat_type":"fixed_voip_online","agent_work_phone":"94677024101003","call_type":"\xe5\x91\xbc\xe5\x87\xba","workflow":"out_direct","result":"\xe5\xae\xa2\xe6\x88\xb7\xe6\x9c\xaa\xe6\x8e\xa5","duration":0,"delay":62,"satisfic":"\xe6\x97\xa0\xe9\x9c\x80\xe8\xaf\x84\xe4\xbb\xb7","survey":"\xe6\x97\xa0\xe9\x9c\x80\xe8\xaf\x84\xe4\xbb\xb7","start_time":"2017-12-13T16:33:52.000+08:00","hangup_people":"","hotline_phone":null,"from_number":"94677024101003","to_number":"13884194383","customer_number":"13884194383","conversation_log_id":36064846,"call_id":"96ab4a31-a6c5-4b5d-b71a-fc779bac964c","phone_address":"\xe7\x94\x98\xe8\x82\x83 \xe5\xba\x86\xe9\x98\xb3\xe5\xb8\x82","access_number":"01060845230","is_leave_message":false,"consult_agent_names_string":"","sound_url":null,"asr_result":false,"outline_phone_number":null,"nodes":null,"multi_ring_count":0,"relevant_agent_ids":[66543],"multi_ring_traces":[]}}],"meta":{"current_page":1,"total_pages":13794,"total_records":137934}}'